[gd_scene load_steps=5 format=2]

[ext_resource path="res://examples/game/ServerIntegration.cs" type="Script" id=1]
[ext_resource path="res://addons/real_time_stonks/server/team/Team.cs" type="Script" id=2]
[ext_resource path="res://addons/real_time_stonks/server/team/entity/unit/Unit.cs" type="Script" id=3]

[sub_resource type="NavigationPolygon" id=1]
vertices = PoolVector2Array( 11, -5, 14, 1, 11, 8, 7, 3, 4, -3, 2, -8, 0, 5, 4, 9, -4, 8, -1, -3, -8, -8, -3, 2, -9, 0, -11, -6 )
polygons = [ PoolIntArray( 0, 1, 2, 3, 4, 5 ), PoolIntArray( 6, 3, 2, 7, 8 ), PoolIntArray( 5, 4, 9, 10 ), PoolIntArray( 11, 6, 8, 12 ), PoolIntArray( 10, 9, 11, 12, 13 ) ]
outlines = [ PoolVector2Array( -8, -8, 2, -8, 11, -5, 14, 1, 11, 8, 4, 9, -4, 8, -9, 0, -11, -6 ), PoolVector2Array( -1, -3, -3, 2, 0, 5, 7, 3, 4, -3 ) ]

[node name="Server" type="Node"]
script = ExtResource( 1 )

[node name="Navigation2D" type="Navigation2D" parent="."]
position = Vector2( 14, 12 )

[node name="NavigationPolygonInstance" type="NavigationPolygonInstance" parent="Navigation2D"]
navpoly = SubResource( 1 )

[node name="Team" type="Node" parent="."]
script = ExtResource( 2 )

[node name="Unit" type="Node2D" parent="Team"]
position = Vector2( 6, 7 )
script = ExtResource( 3 )

[node name="Polygon2D" type="Polygon2D" parent="Team/Unit"]
scale = Vector2( 0.2, 0.2 )
polygon = PoolVector2Array( -1, -1, 1, -1, 1, 1, -1, 1 )

[node name="Camera2D" type="Camera2D" parent="."]
anchor_mode = 0
current = true
zoom = Vector2( 0.05, 0.05 )

[node name="Node2D" type="Node2D" parent="."]
position = Vector2( 23.0507, 16.4968 )
